{
  "version": "2.2",
  "vulnerabilities": [
    {
      "category": "sast",
      "name": "Path traversal: injection possible in 1st argument passed to 'System.IO.File.ReadAllBytes'",
      "message": "Path traversal: injection possible in 1st argument passed to 'System.IO.File.ReadAllBytes'",
      "cve": "WebApp/Controllers/HomeController.cs:52:SCS0018",
      "scanner": {
        "id": "security_code_scan",
        "name": "Security Code Scan"
      },
      "location": {
        "file": "WebApp/Controllers/HomeController.cs",
        "start_line": 52,
        "dependency": {
          "package": {}
        }
      },
      "identifiers": [
        {
          "type": "security_code_scan_rule_id",
          "name": "SCS0018",
          "value": "SCS0018",
          "url": "https://security-code-scan.github.io/#SCS0018"
        }
      ]
    }
  ],
  "remediations": []
}
